{
	"": {
		"language": "eo",
		"plural-forms": "nplurals=2; plural=(n!=1);"
	},
	"Create sources for Meta-Press.es": "Krei fontojn por Meta-Press.es",
	"📰 Create a source (of RSS type only for the moment)": "",
	"Identification": "",
	"Name:": "",
	"The name should be uniq and might be followed by the country code between parenthesis if it's a common name or a declination of an existing source": "",
	"Find and select": "",
	"Required": "",
	"Invalid": "",
	"Incoherent": "",
	"Unsupported": "",
	"Not found": "",
	"RSS not found": "",
	"Failed to load": "",
	"Loading failed": "",
	"Too long (max 64)": "",
	"Too short (min 3)": "",
	"Already used": "",
	"URL:": "",
	"URL of the source. Ex: https://www.custom-source.eu": "",
	"RSS:": "",
	"URL of the main news stream / RSS feed of the source. Ex: https://www.custom-source.eu/feed/": "",
	"Icon:": "",
	"URL of the source's smallest logo (32px). Ex: https://www.custom-source.eu/custom/favicon.png": "",
	"Localisation": "",
	"Language:": "Lingvo:",
	"Country:": "Lando:",
	"Timezone:": "",
	"Show all timezones": "",
	"Timezones are nammed after capitals and biggest cities": "",
	"Results": "",
	"Meta-Press.es needs to learn how to fetch results from the source.\nThis form will fetch raw results and you will have to point interesting parts: title, date, description…": "",
	"But first, use the search feature of the source (with at least a 3-letters search term) and copy the address of the page showing the results here:": "",
	"Search:": "",
	"POST?": "",
	"RSS?": "",
	"Page:": "",
	"Source content-type: ": "",
	"Continue with:": "",
	"HTML": "",
	"Tags": "",
	"Type:": "Tipo:",
	"Media:": "",
	"Theme:": "",
	"Accuracy": "",
	"Many words": "",
	"If the source gives accurate results for the conjonction of many words. It's the best option. ": "",
	"One word": "",
	"If the source gives accurate results only for one word at a time. ": "",
	"Exact": "",
	"If the source gives accurate results only for exact expressions, because you put quotes around the search terms in the search URL. ": "",
	"Approx": "",
	"If the source gives approximative results no matter what you try. ": "",
	"Results reliably loaded in 3s ?": "",
	"Less": "",
	"More": "",
	"Sovereign search system ?": "",
	"internal search": "interna serĉo",
	"external search": "ekstera serĉo",
	"Added sources will remain accessible between searches and updates.": "La aldonitaj fontoj ĉi tie restos haveblaj inter du serĉoj kaj ĝisdatigoj.",
	"If you defined usefull sources, or if you still have questions after ": "Se vi difinis taŭgeblajn fontojn, aŭ se vi ankoraŭ havas demandojn post ",
	"reading the doc": "legante la dokumentaron",
	"Please copy/paste us the corresponding JavaScript object": "Bonvolu sendi al ni la taŭgan kodon",
	"from this page": "",
	") or your questions:": "",
	"by email at ": "per retpoŝtmesaĝo al ",
	"via the ": "per ",
	"code repository": "la celdosierujo de la projekto",
	", creating an issue or a pull request.": ", kreante kodan proponon (pull-request).",
	"or via ": "aŭ per ",
	"You can also help me dedicating more time to this project supporting Meta-Press.es:": "",
	") decentralized press meta-search engine": ") malcentraliza motoro de meta-serĉo por gazetaro",
	"⇬ Back to top": "⇬ Reiro supren",
	"✍ Report feedback": "✍ Reiro al uzanto",
	"€ Support the project": "€ Subteni la projekton",
	"Sources: ": "Fontoj : ",
	" for ": " por ",
	" countries and ": " landoj kaj ",
	" languages.": " lingvoj.",
	"Meta-Press.es logo by Elisa de Castro Guerra": "Emblemo de Meta-Press.es fare de Elisa de Castro Guerra",
	"Ex: New Source": "",
	"Ex: https://www.custom-source.eu": "",
	"Ex: https://www.custom-source.eu/feed/": "",
	"Ex: https://www.custom-source.eu/custom/favicon.png": "",
	"Donation to Meta-Press.es opportunities": "",
	"Logo by Yemanjalisa": "",
	"Name of the new source…": "",
	"Address of the source: https://www. …": "",
	"Address of the RSS feed: https://www. …": "",
	"Optionnal favicon URL": "",
	"Address of the search result page: https://…": "",
	"The term(s) searched for": "",
	"Address of the search web page (in case of RSS or JSON results)": "",
	"https://www.meta-press.es/pages/meta-press.es_documentation.html#_how_to_add_a_new_source_to_the_search_engine": "https://www.meta-press.es/pages/meta-press.es_documentation.html#_how_to_add_a_new_source_to_the_search_engine",
	"https://wiki.laquadrature.net/How_to_IRC": "https://wiki.laquadrature.net/How_to_IRC",
	"https://www.meta-press.es/pages/a_propos.html#_you_can_support_this_work": "https://www.meta-press.es/pages/a_propos.html#_you_can_support_this_work",
	"Custom sources for Meta-Press.es": "",
	"📰 custom sources": "",
	"You can define more sources to search in, adding the corresponding instructions in the following JSON editing text area.": "Vi povas difini novajn fontojn en kiuj serĉi, aldonante la korespondajn uzindikojn en la sekvanta JSON redaktilo.",
	"Some ": "Pluraj ",
	"instructions": "uzindikoj",
	" about how to define a source can be found": " pri kiel difini novan troveblan fonton",
	"here": "ĉi tie",
	"(en/fr) and more examples are shown below.": "(en/fr) kaj ekzemploj estas listigitaj ĉi-malsupre.",
	"Line number ": "Linia numero ",
	" ; column number ": " ; kolumna numero ",
	"💾  Save": "💾  Registri",
	"↶  Reset": "↶ Fari denove",
	"Put ": "Enskribi ",
	"valid JSON": "validan JSON",
	" here, use only double quotes: ": " ĉi tie nur uzante duoblajn citilojn: ",
	" ; and no trailling comas: ": " ; kaj ne repetitajn komojn: ",
	"Here are the ": "Oni trovas ĉi tie la ",
	"provided sources": "indikitajn fontojn",
	" to help you finding inspiration with examples. For instance :": " por ke oni povu sugesti el ili. Ekzemple :",
	" provides results in ": " indikas rezultojn en ",
	"extends": "etendas",
	"the ": "la ",
	" uses the HTTP ": " uzas la metodon ",
	" method;": " HTTP;",
	" uses ": " uzas selektilojn ",
	" selectors to parse HTML;": " elektiloj por analizi HTML;",
	"s to parse some fields.": "s por reakiri kampojn.",
	"Copy to clipboard": "",
	" or your questions:": " aŭ viaj demandoj:",
	"This page uses ": "Ĉi tiu paĝo uzas ",
	", and ": ", kaj ",
	"Artwork by ": "Artverko fare de ",
	"https://developer.mozilla.org/en-US/docs/Web/JavaScript/Reference/Global_Objects/JSON/parse": "https://developer.mozilla.org/en-US/docs/Web/JavaScript/Reference/Global_Objects/JSON/parse",
	"Welcome to Meta-Press.es": "Bonvenon al Meta-Press.es",
	" Welcome": "Bonvenon",
	"To open the search engine, click the [": "Por malfermi la serĉilon, alklalku la [",
	"] icon in the icon bar or modules menu :": "",
	"📖 Documentation": "",
	"Click ": "Alklaku ",
	" to read the documentation.": " por legi la dokumentaron.",
	"🔐 Permissions": "🔐 Permesoj",
	"Here is what Meta-Press.es is doing with the permissions it asks for :": "Jen kion faras Meta-Press.es kun la permesoj, kiujn ĝi petas:",
	" the ": " la ",
	"host permission": "gastiga permeso",
	" is needed to read results from the queried source, only those sources are targeted, and permissions can be dropped between searches": " necesas por legi rezultojn de la pridemandita fonto, nur tiuj fontoj estas celitaj, kaj permesoj povas esti faligitaj inter serĉoj",
	"notification": "sciigo",
	" permission is only used to signal the end of a long search or new results in a scheduled search": " permeso estas uzata nur por signali la finon de longa serĉo aŭ novajn rezultojn en planita serĉo",
	"alarm": "alarmo",
	" permission is used to schedule searches": " permeso estas uzata por plani serĉojn",
	"storage": "memoro",
	" permission is used to remember settings and custom sources": " permeso estas uzata por memori agordojn kaj kutimajn fontojn",
	"Also, this addon periodically (usually once a year) opens the \"journal\" page of the Meta-Press.es project website to present new features.": "Krome, ĉi tiu aldonaĵo periode (kutime unu fojon jare) malfermas la paĝon \" ĵurnalo \" de la retejo Meta-Press.es por prezenti novajn funkciojn.",
	"💸 Support": "",
	"Simon Descarpentries is working on this free / libre software since 2013.": "Simon Descarpentries laboras pri ĉi tiu senpaga / libera programaro ekde 2013.",
	"You can help him dedicating more time to this project supporting Meta-Press.es via:": "Vi povas helpi lin dediĉi pli da tempo al ĉi tiu projekto subtenante Meta-Press.es :",
	"Meta-Press.es logo by Yemanjalisa": "",
	"Settings of Meta-Press.es": "Agordoj de Meta-Press.es",
	"⚙ Settings": "⚙ Agordoj",
	" General": " Ĝenerala",
	"Language: ": "Lingvo : ",
	"Default": "Implicita",
	"Dark background: ": "Malhela fono : ",
	"Auto": "Mem",
	"Dark": "Malhela",
	"Light": "Hela",
	"Reload search when source filters change: ": "Reŝarĝas serĉon post kiam la filtriloj de fonto ŝanĝiĝis : ",
	"Automaticaly search in single or many words capable sources: ": "Aŭtomate serĉo en fontoj per unu aŭ pluraj vortoj : ",
	"🔍 Search": "🔍 Serĉo",
	"Max. results by source: ": "Maksimumaj rezultoj je fonto: ",
	"Deduplicate results (based on title): ": "Deduktaj rezultoj (surbaze de titoloj) : ",
	"Load photos in results: ": "Elŝutas fotojn en rezultoj : ",
	"Search timeout (in seconds, 0 for unlimited): ": "Limdaŭro de serĉo (en sekundoj, 0 : sen limo): ",
	"Child mode (allow only child approved sources): ": "",
	"📢 News": "📢 Novaĵoj",
	"Automatically load news: ": "Aŭtomate elŝutas novaĵojn: ",
	"Reload news when source filters change: ": "Reŝarĝas novaĵojn post kiam la filtriloj de fonto ŝanĝiĝis : ",
	"Max. loaded sources: ": "",
	"Max. news by source: ": "",
	"Default page size: ": "Defaŭlta dimensio de paĝo : ",
	"To be able to read results from the sources, Meta-Press.es needs their \"host permission\".": "Por kapabli legi rezultojn el fontoj Meta-Press bezonas iliajn \"host permission\".",
	"Request all host permissions: ": "Peti gastigantajn permesojn : ",
	"Request": "Peti",
	"Remember host permissions: ": "Memorigi gastigantajn permesojn : ",
	"Drop all host permissions: ": "Nuligi ĉiujn gastigantajn permesojn : ",
	"Drop": "Nuligi",
	"⏰ Automatic search": "⏰ Aŭtomota serĉo",
	"You can schedule searches. Set the search you want from the ": "Vi povas plani serĉojn. Planu la deziratan serĉon el la ",
	"main interface": "precipa interfaco",
	" and click its ⏰ ": " kaj alklaku ĝin ⏰ ",
	"schedule search": "planita serĉo",
	" button.": " butonon.",
	"Timezone: ": "Horzono : ",
	"Search terms": "Serĉu termojn",
	"Last search": "Lasta serĉo",
	"Next search date": "Dato de nova serĉo",
	"Periodicity": "Periodo",
	"Hourly": "Hore",
	"Daily": "Tage",
	"Weekly": "Semajne",
	"Monthly": "Monate",
	"Stop": "Haltu",
	"📰 New sources": "📰 Novaj fontoj",
	" add a source": "",
	" manage custom source": "",
	"You can also help me dedicating more time to this project supporting Meta-Press.es via:": "Vi ankaŭ povas helpi min dediĉi pli da tempo al ĉi tiu projekto subtenante :",
	"Save date / time change": "Konservi datan / tempan ŝanĝon",
	"Edit": "Redakti",
	"Clone": "Kloni",
	"Delete": "Forviŝi",
	"Launch": "Lanĉi",
	"icon": "ikono",
	"Clone line": "Kloni lineon",
	"Import: ": "Importo: ",
	"A propos": "Pri",
	"Position the cursor still over elements to get more info on them.": "Loki la kursoron sur elementon por ekhavi pli da informoj pri ĝi.",
	"Settings": "Agordoj",
	"Search in the press": "",
	"To start a search, enter your terms and click on the \"net\" button below": "",
	"Click here to consult the official online documentation": "Alklaku ĉi tie por konsulti la oficialan retan dokumenton",
	"Keep open: ": "",
	"Show: ": "Montri : ",
	"all": "ĉiujn",
	" news ": " novaĵojn ",
	"Load some news": "Ŝarĝi iujn novaĵojn",
	"Cancel": "Nuligi",
	"Advanced search": "Evoluinta serĉo",
	"Agenda": "Agendo",
	"Doc.": "Dok.",
	"Encyclo.": "Enciklo.",
	"Illustrated": "Ilustrita",
	"Institution": "Institucio",
	"Job": "",
	"Magazine": "Revuo",
	"Peer review": "Kolega reviziado",
	"Press": "Gazetaro",
	"Radio": "Radio",
	"Reference Press": "Referenca Gazetaro",
	"Regional Daily Press": "Regiona Ĉiutaga Gazetaro",
	"Scientific Press": "Scienca Gazetaro",
	"Social network": "Socia reto",
	"TV": "televido",
	"English<small> <i>[en]</i> <i>(129)</i></small>": "",
	"Remove item": "",
	"Result type:": "Speco de rezulto:",
	"audio": "aŭdio",
	"event": "",
	"image": "",
	"job": "",
	"text": "teksto",
	"video": "video",
	"Themes:": "Temoj:",
	"agriculture": "",
	"art": "",
	"book": "libro",
	"consommation": "",
	"culture": "",
	"docu.": "",
	"ecology": "ekologio",
	"education": "",
	"events": "eventoj",
	"feminism": "",
	"financial": "financa",
	"general": "ĝenerala",
	"handicap": "",
	"health": "",
	"investigation": "",
	"journalism": "",
	"life-style": "vivmaniero",
	"media": "komunikilo",
	"music": "",
	"OSINT": "",
	"philo": "",
	"politics": "politiko",
	"regional": "",
	"religion": "",
	"science": "scienco",
	"space": "kosmo",
	"sports": "",
	"techno.": "tekno.",
	"tourism": "",
	"transport": "",
	"video game": "",
	"Technical criterion:": "teknikaj kriterioj:",
	"access content": "",
	"approx": "proksimume",
	"cherry-pick": "selekto",
	"exact": "ĝusta",
	"fast": "rapida",
	"for kids < 9": "",
	"for kids": "",
	"for kids > 9": "",
	"indep.": "",
	"many words": "pluraj vortoj",
	"one word": "unu vorto",
	"slow": "malrapida",
	" reset filters": " denove fiksi filtrilo",
	" source list": "",
	" create source": " krei fonton",
	" schedule search": " hortabela serĉo",
	"Currently ": "Nun ",
	" selected source(s) and ": " selektitaj funtoj kaj ",
	" needed permission(s).": " bezonata(j) permisilo(j).",
	"All": "Ĉiu",
	"Selected": "Selektita",
	"Added": "Aldonita",
	"Removed": "Forigita",
	"☑ Select all": "☑ Selekti ĉion",
	"☑ 📄 Select current page": "☑ 📄 Selekti nunan paĝon",
	"🗑📄 Remove current page": "🗑📄 Forigi nunan paĝon",
	"🗑 Remove all": "Forigi ĉion",
	"Number of sources by page:": "Numero de funtoj per paĝo:",
	" is ": " estas ",
	"waiting for ": "atendas ",
	" source(s) ": " fonto(j) ",
	" over ": " inter ",
	" selected, since ": " elektita(j)n, ekde ",
	"Cancelling…": "Nuliganta…",
	" fetched ": " ekhavitajn ",
	" results for \"": " rezultojn por \"",
	" in ": " en ",
	" s from ": " s el ",
	" source(s) over ": " enda(j) fonto(j) ",
	" selected.": " elektita(j).",
	"Please consider a small ": "Bonvolu pripensi malgrandan ",
	"donation": "donacon",
	" to help keeping Meta-Press.es up-to-date.": " por helpi ĝisdatigon de Meta-Press.es.",
	"No results.": "Neniu rezulto.",
	"Number of results by page:": "Nombro da rezulto(j) ĉiupaĝe:",
	"Total": "Totalo",
	"Report problems for: ": "Raporti problemojn por: ",
	"No results": "Neniu rezulto",
	"Missing results": "Netrovitaj rezultoj",
	"Bad results": "Malbonaj rezultoj",
	"Inapropriate results": "ne taŭgaj rezultoj",
	"Send search terms and settings ? ": "Sendi vortojn de serĉo kaj agordojn? ",
	"Describe your problem (optional) :": "Priskribi vian problemon (nedeviga):",
	"Last day": "Lasta tago",
	"Last 2 days": "Lastaj 2 tagoj",
	"Last 3 days": "Lastaj 3 tagoj",
	"Last week": "Lasta semajno",
	"Last 2 wks": "2 semajnoj",
	"Last month": "Lasta monato",
	"Last 2 mon.": "2 monatoj",
	"Last 6 mon.": "6 monatoj",
	"Last year": "Lasta jaro",
	"Last 2 yrs": "Lastaj 2 jaroj",
	"Last 5 yrs": "Lastaj 5 jaroj",
	"Last decade": "Lasta jardeko",
	"All results": "Ĉiuj rezultoj",
	"Filter result(s) between:": "Rezulto(sj) de filtrilo inter:",
	"Save search as:": "Registrigi la serĉon kiel:",
	"RSS file": "formato RSS",
	"JSON file": "JSON dosiero",
	"CSV file": "CSV dosiero",
	"Selection mode:": "Elekta reĝimo:",
	"✅ toggle": "✅ baskuli",
	"Export selection in:": "Alŝuti la selekton en :",
	"Click to load image": "Alklaku por ŝarĝi bildon",
	"save modification": "konservas ŝanĝon",
	"Search terms, ex.": "Eroj de serĉo, ekz.",
	"New result(s) for scheduled search": "Nova(j) rezulto(j) por horplana serĉo",
	" new ": " nova ",
	"This choice would result in an empty selection.": "Tiu elekto donus malplenan selekton.",
	"Meta-Press.es needs the permission to read the content of the selected sources.\nClick the orange button to give them, you can manage them in the settings.": "",
	"Waiting for…": "Atendanta…",
	"Filter results of": "Filtri rezultojn de",
	"only": "nur",
	"Your navigator timezone": "Via retumila horzono",
	"Select at least one source to search in.": "Selekti almenaŭ unu fonton por serĉi.",
	"Do you want to remove your custom source(s) that are also defined in the provided sources now ?": "Ĉu vi nun volas forigi via(j)n,kutima(j)n fonto(j)n kiuj ankaŭ estas definita(j) en provizitaj fontoj?",
	"Mobile Dev Tools": "Poŝtelefonaj iloj",
	"Skip to main input": "Iru al ĉefa enigo",
	"RSS feed file": "Dosiero RSS",
	"Like this :-)": "Tiele :-)",
	"Search": "Serĉo",
	"Documentation": "Dokumentaro",
	"Show this quantity of headlines at once": "Montri ĉi tiun kvanton da ĉeftitoloj samtempe",
	"Reload the news": "Reŝargi novaĵojn",
	"Remove the news": "forigi novaĵojn",
	"Type your query here": "Tajpu vian serĉon ĉi tie",
	"Click here to start the search. You can also press the Enter key.": "Alklaki ĉi tie por ekserĉi. Oni ankaŭ povas premi la enigan klavon.",
	"Click here to clear the input.": "",
	"Click to reload the page and start a new search": "Alklaki por denove elŝuti la paĝon kaj eki novan serĉon",
	"Criterion to restrict the research to some sources only. For instance, if you want only French sources, select the 'fr' tag in the Country filter.": "Kritero por restriki la serĉon al nur iuj fontoj. Ekzemple, se vi volas nur esperantajn fontojn, elektu la 'eo'.",
	"Only sources of the selected types (press, radio, TV…) will be searched": "Nur fontoj pri elektitaj tipoj (gazetaro, radio, televidilo…) estos serĉitaj",
	"Only sources in the selected languages will be searched": "Nur fontoj pri elektitaj lingvoj estos serĉitaj",
	"Only sources producing results from those selected types will be searched": "Nur fontoj pri elektitaj tipoj de rezultoj",
	"Only sources of the selected themes will be searched": "Nur fontoj pri elektitaj temoj estos serĉitaj",
	"Only sources from the selected contries will be searched": "Nur fontoj pri elektitaj landoj estos serĉitaj",
	"Only sources corresponding to all those selected criterion will be searched": "Nur fontoj pri ĉiuj elektitaj temoj estis serĉotaj",
	"Reset default selection": "Reiro al defaŭlto",
	"View (and select) the sources": "Vidu (kaj selektu) fontojn",
	"Schedule this search": "Planu tiun serĉon",
	"Close src": "Fermi fontojn",
	"View all the sources": "Vidi ĉiujn fontojn",
	"View the selected sources": "Vidi selektitajn fontojn",
	"View the added sources": "Vidi aldonitajn fontojn",
	"View the removed sources": "Vidi forigitajn fontojn",
	"Edit selection": "Redakti selekton",
	"Clear search": "Klarigi serĉon",
	"Select all sources": "Selekti ĉiujn fontojn",
	"Select current page": "Selekti nunan paĝon",
	"Remove the current page": "Forigi nunan paĝon",
	"Remove all": "Forigi ĉion",
	"Unselect": "Malselekti",
	"Add to the selection": "Aldoni al la selekto",
	"Search only in this source": "Serĉi nur en ĉi tiu fonto",
	"Click to abort the search": "Alklaki por abortigi la serĉon",
	"Local permalink for this search": "Ĉi tiea ĉiama ligilo por ĉi tiu serĉo",
	"Please donate today": "Bonvolu donaci hodiaŭ",
	"No result, because of a torn butterfly net ?": "Neniu rezulto, ĉar estas interreta ŝirita papilio?",
	"Clear filter": "Forviŝi filtrilon",
	"Click to display all results again": "Alklaki por afiŝi denove ĉiujn rezultojn",
	"Link to the results in the source site": "Ligilo al la rezultoj ĉe la reteja fonto",
	"Remove results of this source": "Formeti tiujn fontajn rezultojn",
	"Report a problem for this source": "Raporti problemon pri ĉi tiu fonto",
	"Send": "Sendi",
	"Toggle selection mode": "Baskuligi reĝimon de elektado",
	"Select all results in page": "Elekti ĉiujn rezultojn en paĝo",
	"Unselect all results in page": "Malelekti ĉiujn rezultojn en paĝo",
	"Toggle selection state": "Baskuligi staton de elektado",
	"Meta-Press.es butterfly net logo": "Meta-Press.es logo de papilia reto",
	"search source": "serĉi fonton",
	"Filter sources": "Filtri fontojn",
	"Filter results": "Rezultoj de filtro",
	"https://www.helloasso.com/associations/meta-press-es/formulaires/1/en": "https://www.helloasso.com/associations/meta-press-es/formulaires/1/en"
}