{
	"": {
		"language": "fr",
		"plural-forms": "nplurals=2; plural=(n!=1);"
	},
	"Create sources for Meta-Press.es": "Ajouter de nouvelles sources à Meta-Press.es",
	"📰 Create a source (of RSS type only for the moment)": "📰 Créer une source (de type RSS seulement pour l'instant)",
	"Identification": "",
	"Name:": "Nom",
	"The name should be uniq and might be followed by the country code between parenthesis if it's a common name or a declination of an existing source": "Le nom doit être unique et suivi du code du pays entre parenthèses si c'est un nom trop commun ou une déclinaison de source existante",
	"Find and select": "Sélectionner",
	"Required": "Requis",
	"Invalid": "Invalide",
	"Incoherent": "Incohérent",
	"Unsupported": "Non supporté",
	"Not found": "Non trouvé",
	"RSS not found": "Pas de RSS",
	"Failed to load": "Échec du chargement",
	"Loading failed": "Échec du chargement",
	"Too long (max 64)": "Trop long (max 64)",
	"Too short (min 3)": "Trop court (min 3)",
	"Already used": "Déjà utilisé",
	"URL:": "URL :",
	"URL of the source. Ex: https://www.custom-source.eu": "URL de la source. Ex: https://www.custom-source.eu",
	"RSS:": "RSS :",
	"URL of the main news stream / RSS feed of the source. Ex: https://www.custom-source.eu/feed/": "URL du flux RSS principal de la source. Ex: https://www.custom-source.eu/feed",
	"Icon:": "Icône",
	"URL of the source's smallest logo (32px). Ex: https://www.custom-source.eu/custom/favicon.png": "URL du plus petit logo de la source (32px). Ex: https://www.custom-source.eu/custom/favicon.png",
	"Localisation": "",
	"Language:": "Langue :",
	"Country:": "Pays :",
	"Timezone:": "Fuseau horaire :",
	"Show all timezones": "Voir tous les fuseaux horaires",
	"Timezones are nammed after capitals and biggest cities": "Les fuseaux horaires sont nommés en fonction des capitales de pays et des grosses villes",
	"Results": "Résultats",
	"Meta-Press.es needs to learn how to fetch results from the source.\nThis form will fetch raw results and you will have to point interesting parts: title, date, description…": "Meta-Press.es doit apprendre comment lire les résultats de cette source.\nCe formulaire va récupérer les résultats bruts et vous devrez pointer les parties intéressantes : titre d'un résultat, date, description…",
	"But first, use the search feature of the source (with at least a 3-letters search term) and copy the address of the page showing the results here:": "Mais il faut d'abord faire une recherche sur la source (avec au moins un mot clé de 3 lettres) et copier ici l'adresse de la page montrant les résultats :",
	"Search:": "Recherche :",
	"POST?": "",
	"RSS?": "",
	"Page:": "Page :",
	"Source content-type: ": "Content-type de la source :",
	"Continue with:": "Continuer avec :",
	"HTML": "",
	"Tags": "",
	"Type:": "Type de source : ",
	"Media:": "",
	"Theme:": "",
	"Accuracy": "",
	"Many words": "",
	"If the source gives accurate results for the conjonction of many words. It's the best option. ": "Si la source donne des résultats contenant tous les mots clés.",
	"One word": "",
	"If the source gives accurate results only for one word at a time. ": "Si la source donne des résultats contenant au moins un des mots clés.",
	"Exact": "",
	"If the source gives accurate results only for exact expressions, because you put quotes around the search terms in the search URL. ": "Si la source donne des résultats contenant une expression exacte.",
	"Approx": "",
	"If the source gives approximative results no matter what you try. ": "Si la source donne toujours des résultats approximatifs.",
	"Results reliably loaded in 3s ?": "",
	"Less": "",
	"More": "",
	"Sovereign search system ?": "",
	"internal search": "recherche interne",
	"external search": "recherche externalisée",
	"Added sources will remain accessible between searches and updates.": "Les sources ajoutées ici resteront accessibles entre deux mises à jour.",
	"If you defined usefull sources, or if you still have questions after ": "Si vous avez défini une source qui pourrait être utile aux autres, ou si vous avez toujours des questions après votre ",
	"reading the doc": "lecture de la doc",
	"Please copy/paste us the corresponding JavaScript object": "Envoyez-nous, s'il vous plait, le code correspondant",
	"from this page": "depuis cette page",
	") or your questions:": ") ou vos questions :",
	"by email at ": "par courriel à ",
	"via the ": "directement ",
	"code repository": "sur le dépôt du projet",
	", creating an issue or a pull request.": ", en créant une proposition de code (pull-request).",
	"or via ": "ou par ",
	"You can also help me dedicating more time to this project supporting Meta-Press.es:": "Vous pouvez également me permettre de dédier plus de temps à Meta-Press.es en soutenant le projet :",
	") decentralized press meta-search engine": ") moteur de recherche decentralisé pour la presse",
	"⇬ Back to top": "⇬ Retour en haut",
	"✍ Report feedback": "✍ Retour utilisateur",
	"€ Support the project": "€ Retour sur investissement",
	"Sources: ": "Sources : ",
	" for ": " pour ",
	" countries and ": " pays et ",
	" languages.": " langues.",
	"Meta-Press.es logo by Elisa de Castro Guerra": "Logo de Meta-Press.es par Élisa de Castro Guerra",
	"Ex: New Source": "",
	"Ex: https://www.custom-source.eu": "",
	"Ex: https://www.custom-source.eu/feed/": "",
	"Ex: https://www.custom-source.eu/custom/favicon.png": "",
	"Donation to Meta-Press.es opportunities": "",
	"Logo by Yemanjalisa": "Logo par Yemanjalisa",
	"Name of the new source…": "Nom de la nouvelle source",
	"Address of the source: https://www. …": "Adresse de la source : https://www. …",
	"Address of the RSS feed: https://www. …": "Adresse du flux RSS : https://www. …",
	"Optionnal favicon URL": "Adresse du favicon (optionnelle)",
	"Address of the search result page: https://…": "Adresse de la page de résultats : https://…",
	"The term(s) searched for": "Terme(s) de recherche utilisé(s)",
	"Address of the search web page (in case of RSS or JSON results)": "Adresse de la page web de recherche (en cas résultats en RSS ou JSON)",
	"https://www.meta-press.es/pages/meta-press.es_documentation.html#_how_to_add_a_new_source_to_the_search_engine": "https://www.meta-press.es/fr/pages/meta-press.es_documentation.html#_comment_ajouter_une_source_au_moteur_de_recherche",
	"https://wiki.laquadrature.net/How_to_IRC": "https://wiki.laquadrature.net/IRC",
	"https://www.meta-press.es/pages/a_propos.html#_you_can_support_this_work": "https://www.meta-press.es/fr/pages/a_propos.html#_vous_pouvez_soutenir_ce_projet",
	"Custom sources for Meta-Press.es": "Sources créées pour Meta-Press.es",
	"📰 custom sources": "📰 sources créées",
	"You can define more sources to search in, adding the corresponding instructions in the following JSON editing text area.": "Vous pouvez définir de nouvelles sources dans lesquelles chercher, en ajoutant les instructions correspondantes dans l'éditeur JSON suivant.",
	"Some ": "Des ",
	"instructions": "instructions",
	" about how to define a source can be found": " à propos de comment définir une nouvelle source peuvent être trouvée",
	"here": "ici",
	"(en/fr) and more examples are shown below.": "et des exemples sont listés ci-dessous.",
	"Line number ": "Numéro de ligne ",
	" ; column number ": " ; numéro de colonne ",
	"💾  Save": "💾  Sauver",
	"↶  Reset": "↶  R.à.z.",
	"Put ": "N'inscrire que du ",
	"valid JSON": "JSON valide",
	" here, use only double quotes: ": " ici, en utilisant seulement des guillemets doubles : ",
	" ; and no trailling comas: ": " ; et pas de virgule trainante : ",
	"Here are the ": "On retrouve ici les ",
	"provided sources": "sources fournies",
	" to help you finding inspiration with examples. For instance :": " pour pouvoir s'en inspirer. Par exemple :",
	" provides results in ": " fournit des résultats en ",
	"extends": "étend",
	"the ": "le ",
	" uses the HTTP ": " utilise la méthode ",
	" method;": " HTTP;",
	" uses ": " utilise des sélecteurs ",
	" selectors to parse HTML;": " pour analyser les pages HTML ;",
	"s to parse some fields.": " pour récupérer certains champs.",
	"Copy to clipboard": "Copier dans le presse-papiers",
	" or your questions:": " ou vos questions :",
	"This page uses ": "Cette page utilise ",
	", and ": ", et ",
	"Artwork by ": "Graphisme par ",
	"https://developer.mozilla.org/en-US/docs/Web/JavaScript/Reference/Global_Objects/JSON/parse": "https://developer.mozilla.org/fr/docs/Web/JavaScript/Reference/Global_Objects/JSON/parse",
	"Welcome to Meta-Press.es": "Bienvenue dans Meta-Press.es",
	" Welcome": " Bienvenue",
	"To open the search engine, click the [": "Pour ouvrir Meta-Press.es, cliquez sur l'icône [",
	"] icon in the icon bar or modules menu :": "] dans la barre d'outil ou le menu des extensions :",
	"📖 Documentation": "",
	"Click ": "Cliquez ",
	" to read the documentation.": " pour lire la documentation.",
	"🔐 Permissions": "🔐 Permissions",
	"Here is what Meta-Press.es is doing with the permissions it asks for :": "Voici ce que Meta-Press.es fait des permissions demandées :",
	" the ": " la permission ",
	"host permission": "d'hôte",
	" is needed to read results from the queried source, only those sources are targeted, and permissions can be dropped between searches": " est utile pour lire les résultats depuis les sources, seules les sources interrogées sont ciblées et il est possible de retirer les permissions entre deux recherches",
	"notification": "de notification",
	" permission is only used to signal the end of a long search or new results in a scheduled search": " n'est utilisée que pour signaler la fin d'une longue recherche ou de nouveaux résultats lors d'une recherche programmée",
	"alarm": "d'alarme",
	" permission is used to schedule searches": " est utilisée pour programmer des recherches",
	"storage": "de stockage",
	" permission is used to remember settings and custom sources": " est utilisée pour conserver les réglages et les sources définie localement",
	"Also, this addon periodically (usually once a year) opens the \"journal\" page of the Meta-Press.es project website to present new features.": "Cette extension ouvre également de temps en temps (généralement une fois par an) la page \"journal\" du site officiel du projet pour vous inviter à découvrir les nouvelles fonctionnalités.",
	"💸 Support": "",
	"Simon Descarpentries is working on this free / libre software since 2013.": "Simon Descarpentries travaille sur ce logiciel libre depuis 2013.",
	"You can help him dedicating more time to this project supporting Meta-Press.es via:": "Vous pouvez l'aider à dédier plus de temps à ce projet en soutenant Meta-Press.es via :",
	"Meta-Press.es logo by Yemanjalisa": "Logo Meta-Press.es par Yemanjalisa",
	"Settings of Meta-Press.es": "Réglages de Meta-Press.es",
	"⚙ Settings": "⚙ Réglages",
	" General": " Généraux",
	"Language: ": "Langue : ",
	"Default": "Défaut",
	"Dark background: ": "Fond sombre : ",
	"Auto": "Auto",
	"Dark": "Sombre",
	"Light": "Clair",
	"Reload search when source filters change: ": "Recharger la recherche si les filtres sont changés : ",
	"Automaticaly search in single or many words capable sources: ": "Recherche automatiquement dans les sources sachant répondre pour un ou plusieurs mots : ",
	"🔍 Search": "🔍 Recherche",
	"Max. results by source: ": "Nombre max. de résultats par source : ",
	"Deduplicate results (based on title): ": "Dédupliquer les résultats (à partir des titres) : ",
	"Load photos in results: ": "Charger les photos dans les résultats : ",
	"Search timeout (in seconds, 0 for unlimited): ": "Durée max. des recherches (en secondes, 0 pour ne pas limiter) : ",
	"Child mode (allow only child approved sources): ": "Mode enfant (limite aux sources approuvées) : ",
	"📢 News": "📢 Actualités",
	"Automatically load news: ": "Charger les actualités automatiquement : ",
	"Reload news when source filters change: ": "Recharger les actu. si les filtres changent : ",
	"Max. loaded sources: ": "Nombre max. de sources interrogées : ",
	"Max. news by source: ": "Nombre max. d'actu chargées par source : ",
	"Default page size: ": "Nombre d'éléments par page : ",
	"To be able to read results from the sources, Meta-Press.es needs their \"host permission\".": "Pour lire les résultats de chaque sources, Meta-Press.es a besoin de leur \"permission d'hôte\".",
	"Request all host permissions: ": "Donner toutes les permissions d'hôte : ",
	"Request": "Donner",
	"Remember host permissions: ": "Conserver les permissions d'hôte : ",
	"Drop all host permissions: ": "Retirer toutes les permissions d'hôte : ",
	"Drop": "Retirer",
	"⏰ Automatic search": "⏰ Recherches programmées",
	"You can schedule searches. Set the search you want from the ": "Vous pouvez programmer des recherches. Réglez la recherche voulue dans l'",
	"main interface": "interface principale",
	" and click its ⏰ ": " et cliquez sur le bouton ⏰ ",
	"schedule search": "recherche programmée",
	" button.": ".",
	"Timezone: ": "Fuseau horaire : ",
	"Search terms": "Termes de recherche",
	"Last search": "Dernière recherche",
	"Next search date": "Prochain exécution",
	"Periodicity": "Périodicité",
	"Hourly": "Horaire",
	"Daily": "Quotidienne",
	"Weekly": "Hebdomadaire",
	"Monthly": "Mensuelle",
	"Stop": "Désactivée",
	"📰 New sources": "📰 Ajout de sources",
	" add a source": " créer une source",
	" manage custom source": " gérer les sources créées",
	"You can also help me dedicating more time to this project supporting Meta-Press.es via:": "Vous pouvez m'aider à dédier plus de temps à ce projet en soutenant Meta-Press.es via :",
	"Save date / time change": "Sauver le changement de programmation",
	"Edit": "Éditer",
	"Clone": "Cloner",
	"Delete": "Supprimer",
	"Launch": "Lancer",
	"icon": "icon",
	"Clone line": "Cloner la ligne",
	"Import: ": "Import : ",
	"A propos": "À propos",
	"Position the cursor still over elements to get more info on them.": "Placer le curseur sur un élément pour obtenir plus d'info à son sujet.",
	"Settings": "Réglages",
	"Search in the press": "Chercher dans la presse",
	"To start a search, enter your terms and click on the \"net\" button below": "Pour lancer une recherche, saisir des mots-clés et cliquer sur le bouton « Filet à étoile » ci-dessous",
	"Click here to consult the official online documentation": "Cliquez ici pour consulter la documentation officielle en ligne",
	"Keep open: ": "Garder ouvert",
	"Show: ": "Montrer : ",
	"all": "tout",
	" news ": " actu. ",
	"Load some news": "Charger des actualités",
	"Cancel": "Annuler",
	"Advanced search": "Recherche avancée",
	"Agenda": "Agenda",
	"Doc.": "Doc.",
	"Encyclo.": "Encyclo.",
	"Illustrated": "Illustrée",
	"Institution": "Institution",
	"Job": "Emploi",
	"Magazine": "Magazine",
	"Peer review": "Revue par les pairs",
	"Press": "Presse",
	"Radio": "Radio",
	"Reference Press": "Presse de référence",
	"Regional Daily Press": "PQR",
	"Scientific Press": "Presse scientifique",
	"Social network": "Réseaux sociaux",
	"TV": "TV",
	"English<small> <i>[en]</i> <i>(129)</i></small>": "",
	"Remove item": "Retirer l'élément",
	"Result type:": "Type de résultat :",
	"audio": "audio",
	"event": "évènement",
	"image": "",
	"job": "emploi",
	"text": "texte",
	"video": "vidéo",
	"Themes:": "Thèmes :",
	"agriculture": "",
	"art": "",
	"book": "livres",
	"consommation": "",
	"culture": "",
	"docu.": "",
	"ecology": "écologie",
	"education": "éducation",
	"events": "évènements",
	"feminism": "féminisme",
	"financial": "finance",
	"general": "général",
	"handicap": "",
	"health": "santé",
	"investigation": "",
	"journalism": "journalisme",
	"life-style": "mode",
	"media": "média",
	"music": "musique",
	"OSINT": "OSINT",
	"philo": "",
	"politics": "politique",
	"regional": "régional",
	"religion": "",
	"science": "science",
	"space": "espace",
	"sports": "",
	"techno.": "techno.",
	"tourism": "tourisme",
	"transport": "",
	"video game": "jeux vidéos",
	"Technical criterion:": "Critères techniques :",
	"access content": "contenu accessible",
	"approx": "approx",
	"cherry-pick": "sélection",
	"exact": "exact",
	"fast": "rapide",
	"for kids < 9": "pour enfant < 9 ans",
	"for kids": "pour enfant",
	"for kids > 9": "pour enfant > 9 ans",
	"indep.": "indé.",
	"many words": "plusieurs mots",
	"one word": "un mot",
	"slow": "lent",
	" reset filters": " ràz filtres",
	" source list": " liste des sources",
	" create source": " créer une source",
	" schedule search": " automatiser la recherche",
	"Currently ": "Actuellement ",
	" selected source(s) and ": " source(s) sélectionnée(s) et ",
	" needed permission(s).": " permissions manquante(s).",
	"All": "Tout",
	"Selected": "Sélectionné",
	"Added": "Ajouté",
	"Removed": "Retiré",
	"☑ Select all": "☑ Sélectionner tout",
	"☑ 📄 Select current page": "☑ 📄 Sélect. la page",
	"🗑📄 Remove current page": "🗑 📄 Retirer la page",
	"🗑 Remove all": "🗑 Retirer tout",
	"Number of sources by page:": "Nombre de sources par page :",
	" is ": " ",
	"waiting for ": "attend ",
	" source(s) ": " source(s) ",
	" over ": " sur ",
	" selected, since ": " sélectionnée(s), depuis ",
	"Cancelling…": "Annulation…",
	" fetched ": " a récupéré ",
	" results for \"": " résultats pour \"",
	" in ": " en ",
	" s from ": " s depuis ",
	" source(s) over ": " source(s) sur ",
	" selected.": " sélectionnée(s).",
	"Please consider a small ": "S'il vous plait, considérez l'opportunité de faire un ",
	"donation": "don",
	" to help keeping Meta-Press.es up-to-date.": " pour aider à garder Meta-Press.es à jour.",
	"No results.": "Aucun résultat.",
	"Number of results by page:": "Nombre de résultats par page :",
	"Total": "Total",
	"Report problems for: ": "Signaler un problème sur : ",
	"No results": "Pas de résultat",
	"Missing results": "Des résultats manquants",
	"Bad results": "Pas les bons résultats",
	"Inapropriate results": "Résultats offensant",
	"Send search terms and settings ? ": "Envoyer vos réglages et termes de recherche ? ",
	"Describe your problem (optional) :": "Décrivez votre problème (optionnel) :",
	"Last day": "Dernier j.",
	"Last 2 days": "2 der. j.",
	"Last 3 days": "3 der. j.",
	"Last week": "Der. sem.",
	"Last 2 wks": "2 der. sem.",
	"Last month": "Der. mois",
	"Last 2 mon.": "2 der. mois",
	"Last 6 mon.": "6 der. mois",
	"Last year": "Un an",
	"Last 2 yrs": "2 ans",
	"Last 5 yrs": "3 ans",
	"Last decade": "10 ans",
	"All results": "Tout",
	"Filter result(s) between:": "Filtrer les résultats entre :",
	"Save search as:": "Sauver la recherche en :",
	"RSS file": "format RSS",
	"JSON file": "Fichier JSON",
	"CSV file": "Fichier CSV",
	"Selection mode:": "Mode de sélection :",
	"✅ toggle": "✅ basculer",
	"Export selection in:": "Exporter la sélection en :",
	"Click to load image": "Cliquer ici pour charger l'image",
	"save modification": "sauver les modifications",
	"Search terms, ex.": "Termes de recherche, ex.",
	"New result(s) for scheduled search": "Nouveau(x) résultats pour la recherche programmée",
	" new ": " nouveau(x) ",
	"This choice would result in an empty selection.": "Ce choix aboutirait à une sélection vide.",
	"Meta-Press.es needs the permission to read the content of the selected sources.\nClick the orange button to give them, you can manage them in the settings.": "Meta-Press.es a besoin de la permission de lire le contenu des sources sélectionnées.\nCliquer sur le bouton orange pour les donner, vous pouvez les gérer dans les réglages.",
	"Waiting for…": "En attente de…",
	"Filter results of": "Filtrer les résultats de",
	"only": "seulement",
	"Your navigator timezone": "Le fuseau horaire de votre navigateur",
	"Select at least one source to search in.": "Sélectionnez au moins une source dans laquelle chercher.",
	"Do you want to remove your custom source(s) that are also defined in the provided sources now ?": "Voulez-vous retirer vos sources définies localement qui sont désormais livrées avec Meta-Press.es ?",
	"Mobile Dev Tools": "Mobile Dev Tools",
	"Skip to main input": "Aller à la saisie",
	"RSS feed file": "Fichier RSS",
	"Like this :-)": "Comme ça :-)",
	"Search": "Recherche",
	"Documentation": "La documentation",
	"Show this quantity of headlines at once": "Montrer cette quantité d'actu. à la fois",
	"Reload the news": "Recharger les actualités",
	"Remove the news": "Retirer les actualités",
	"Type your query here": "Saisissez votre requête ici",
	"Click here to start the search. You can also press the Enter key.": "Cliquer ici pour lancer la recherche. Il est également possible de presser la touche Entrée.",
	"Click here to clear the input.": "Cliquer ici pour vider le champs de texte.",
	"Click to reload the page and start a new search": "Cliquer pour recharger la page et lancer une nouvelle recherche.",
	"Criterion to restrict the research to some sources only. For instance, if you want only French sources, select the 'fr' tag in the Country filter.": "Critères pour restreindre la recherche à certaines sources. Par exemple, pour ne chercher que dans les sources en français, sélectionner 'fr' dans la liste des Pays.",
	"Only sources of the selected types (press, radio, TV…) will be searched": "Seules les sources de ce type (presse, radio, TV…) seront interrogées",
	"Only sources in the selected languages will be searched": "Seules les sources correspondant aux langues sélectionnées seront interrogées",
	"Only sources producing results from those selected types will be searched": "Seules les sources produisant des résultats de ce type seront interrogées",
	"Only sources of the selected themes will be searched": "Seules les sources correspondant aux thèmes sélectionnés seront interrogées",
	"Only sources from the selected contries will be searched": "Seules les sources des pays sélectionnés seront interrogées",
	"Only sources corresponding to all those selected criterion will be searched": "Seules les sources correspondant à tous ces critères seront interrogées",
	"Reset default selection": "Retour à la sélection par défaut",
	"View (and select) the sources": "Voir (et sélectionner) des sources",
	"Schedule this search": "Programmer cette recherche",
	"Close src": "Fermer la source",
	"View all the sources": "Voir toutes les sources",
	"View the selected sources": "Voir les sources sélectionnées",
	"View the added sources": "Voir les sources manuellement ajoutées à la sélection courante",
	"View the removed sources": "Voir les sources manuellement retirées à la sélection courante",
	"Edit selection": "Éditer la sélection",
	"Clear search": "Stopper la recherche",
	"Select all sources": "Sélectionner toutes les sources",
	"Select current page": "Sélectionner la page",
	"Remove the current page": "Retirer de cet onglet les sources de la page courante",
	"Remove all": "Retirer de cet onglet toutes les sources",
	"Unselect": "Déselectionner",
	"Add to the selection": "Ajouter à la sélection",
	"Search only in this source": "Ne chercher que dans cette source",
	"Click to abort the search": "Cliquer pour stopper la recherche.",
	"Local permalink for this search": "Permalien local pour cette recherche",
	"Please donate today": "Faîtes un don aujourd'hui s'il vous plait",
	"No result, because of a torn butterfly net ?": "Pas de résultats… peut être à cause d'un filet percé ?",
	"Clear filter": "Vider le filtre",
	"Click to display all results again": "Cliquer pour afficher tous les résultats à nouveau",
	"Link to the results in the source site": "Lien vers les résultats sur le site de la source",
	"Remove results of this source": "Retirer les résultats de cette source",
	"Report a problem for this source": "Signaler un problème sur cette source",
	"Send": "Envoyer",
	"Toggle selection mode": "Basculer le mode de sélection",
	"Select all results in page": "Sélectionner tous les résultats de la page courante",
	"Unselect all results in page": "Dé-sélectionner tous les résultats de la page courante",
	"Toggle selection state": "Inverser la sélection de résultats de la page courante",
	"Meta-Press.es butterfly net logo": "Logo \"filet à papillon\" de Meta-Press.es",
	"search source": "Rechercher dans les sources",
	"Filter sources": "Filtrer les sources",
	"Filter results": "Filtrer les résultats",
	"https://www.helloasso.com/associations/meta-press-es/formulaires/1/en": "https://www.helloasso.com/associations/meta-press-es/formulaires/1"
}